DateTime;VOLpos;VOLneg;AbgerMenge_Pos;AbgerMenge_Neg;Arbeitspreis_Pos;Arbeitspreis_Neg
2015-12-12 00:00:00;35.3571901111111;9.449686444444445;32.0;16.0;54.39;-4.07
2015-12-12 00:15:00;41.768200555555566;21.089877999999977;50.0;18.0;57.62;-3.69
2015-12-12 00:30:00;63.760539733333374;3.865194371111111;62.0;3.0;60.08;-6.2
2015-12-12 00:45:00;1.8938346777777781;18.353351944444444;1.0;21.0;51.9;-3.38
2015-12-12 01:00:00;118.95129844444453;0.664148111111111;111.0;1.0;68.08;-6.2
2015-12-12 01:15:00;47.80488022222222;1.2417309111111108;52.0;3.0;57.99;-6.2
2015-12-12 01:30:00;55.800015333333334;0.09817866666666666;59.0;1.0;59.52;-6.2
2015-12-12 01:45:00;73.05280055555556;0.9948452000000002;79.0;1.0;63.18;-6.2
2015-12-12 02:00:00;0.0;167.95828344444453;3.0;139.0;51.9;30.41
2015-12-12 02:15:00;0.0;191.07714911111114;0.0;192.0;51.9;66.21
2015-12-12 02:30:00;0.0;137.98416188888885;0.0;151.0;51.9;39.22
2015-12-12 02:45:00;0.0;94.32981722222222;1.0;101.0;51.9;13.88
2015-12-12 03:00:00;0.3728695555555555;91.38816555555559;1.0;81.0;51.9;9.3
2015-12-12 03:15:00;0.0;63.10475844444443;0.0;74.0;51.9;7.53
2015-12-12 03:30:00;0.6828765555555556;25.88528044444444;2.0;33.0;51.9;-1.89
2015-12-12 03:45:00;0.22239155555555556;62.101908544444456;0.0;64.0;51.9;4.6
2015-12-12 04:00:00;1.0784120000000001;54.51604954444445;1.0;48.0;51.9;-0.04
2015-12-12 04:15:00;0.0;97.80587322222226;0.0;92.0;51.9;11.82
2015-12-12 04:30:00;6.457439000000001;59.21058708888884;7.0;63.0;51.9;4.51
2015-12-12 04:45:00;5.034025022222223;11.888110188888891;6.0;21.0;51.9;-3.36
2015-12-12 05:00:00;16.79475596666667;5.456877511111113;14.0;9.0;51.9;-5.32
2015-12-12 05:15:00;28.93889922222222;0.6209352222222223;38.0;2.0;55.25;-6.2
2015-12-12 05:30:00;19.56946033333333;11.852008333333334;13.0;12.0;51.9;-4.96
2015-12-12 05:45:00;75.71881799999993;0.06709633333333333;67.0;1.0;60.87;-6.2
2015-12-12 06:00:00;12.880065555555559;15.492600977777775;19.0;14.0;51.9;-4.31
2015-12-12 06:15:00;42.2832278888889;0.9043821111111113;36.0;1.0;55.04;-6.2
2015-12-12 06:30:00;121.86891399999998;0.026988666666666668;99.0;0.0;66.32;-6.2
2015-12-12 06:45:00;31.629662911111108;7.201030833333335;57.0;5.0;59.16;-6.2
2015-12-12 07:00:00;23.26851295555555;8.833268433333334;15.0;7.0;51.9;-5.77
2015-12-12 07:15:00;56.893210444444456;0.6010700777777778;51.0;1.0;57.77;-6.2
2015-12-12 07:30:00;30.319556111111115;4.965893744444445;43.0;4.0;56.23;-6.2
2015-12-12 07:45:00;62.79453333333328;1.3474050333333338;55.0;2.0;58.66;-6.2
2015-12-12 08:00:00;37.15334313333333;1.0996952222222223;53.0;1.0;77.47;-17.0
2015-12-12 08:15:00;42.249986133333344;1.6913993333333335;36.0;2.0;73.24;-15.88
2015-12-12 08:30:00;47.09976370000002;0.6935509866666666;40.0;1.0;74.45;-16.6
2015-12-12 08:45:00;87.7667968888889;0.0;89.0;0.0;81.46;-17.0
2015-12-12 09:00:00;109.04728744444444;0.0;106.0;0.0;85.95;-17.0
2015-12-12 09:15:00;107.83783822222226;0.0;113.0;0.0;87.79;-17.0
2015-12-12 09:30:00;71.45210933333334;1.5790398211111112;70.0;2.0;79.63;-15.16
2015-12-12 09:45:00;10.791024988888896;7.575771333333334;25.0;7.0;69.49;-11.22
2015-12-12 10:00:00;30.0819078888889;3.273697777777778;28.0;4.0;70.5;-13.41
2015-12-12 10:15:00;14.218243175555552;10.905785366666668;10.0;8.0;64.74;-10.3
2015-12-12 10:30:00;7.826220655555557;22.75936776666666;8.0;13.0;63.41;-7.3
2015-12-12 10:45:00;0.9396413333333334;58.71861566666663;0.0;58.0;55.0;-0.89
2015-12-12 11:00:00;0.9144596222222222;36.524570000000004;0.0;43.0;55.0;-1.67
2015-12-12 11:15:00;0.14921377777777778;71.99804766666665;0.0;66.0;55.0;-0.63
2015-12-12 11:30:00;1.6457042666666668;30.823013999999983;2.0;34.0;55.88;-2.34
2015-12-12 11:45:00;0.3175907666666667;45.48160866666666;0.0;38.0;55.0;-2.01
2015-12-12 12:00:00;0.0;0.12097688888888888;31.0;14.0;71.3;-6.63
